Beispielhafte Auswertungen - 16 Eisen und Zink in Salat
…
emm_tbl <- nested_tbl %>% 
  mutate(model = map(data, ~lm(rsp ~ versuchsgruppe, data = .x))) %>% 
  mutate(emm = map(model, emmeans, ~versuchsgruppe)) %>% 
  mutate(contrast = map(emm, contrast, method = "pairwise", 
                        adjust = "none")) %>% 
  mutate(cld = map(emm, cld, Letters = letters, adjust = "none"))
  
emm_tbl %>% 
  mutate(contrast = map(contrast, as_tibble)) %>% 
  unnest(contrast) %>% 
  select(outcome, contrast, p.value) %>% 
  mutate(p.value = pvalue(p.value)) %>% 
  print(n = 10)

# A tibble: 144 × 3
# Groups:   outcome [4]
   outcome       contrast                        p.value
   <chr>         <chr>                           <chr>  
 1 zn_blanchiert (Fe-EDDHA_0.2) - (Fe-EDDHA_0.3) 0.836  
 2 zn_blanchiert (Fe-EDDHA_0.2) - (Fe-EDDHA_0.4) 0.118  
 3 zn_blanchiert (Fe-EDDHA_0.2) - (Fe-EDDHA_0.6) 0.357  
 4 zn_blanchiert (Fe-EDDHA_0.2) - FeSO4 H2O_0.2  0.682  
 5 zn_blanchiert (Fe-EDDHA_0.2) - FeSO4 H2O_0.3  0.573  
 6 zn_blanchiert (Fe-EDDHA_0.2) - FeSO4 H2O_0.4  0.878  
 7 zn_blanchiert (Fe-EDDHA_0.2) - FeSO4 H2O_0.6  0.492  
 8 zn_blanchiert (Fe-EDDHA_0.2) - Kontrolle_0    0.168  
 9 zn_blanchiert (Fe-EDDHA_0.3) - (Fe-EDDHA_0.4) 0.171  
10 zn_blanchiert (Fe-EDDHA_0.3) - (Fe-EDDHA_0.6) 0.474  
# ℹ 134 more rows
…
