Beispielhafte Auswertungen - 10 Spurenelemente in Spinatblättern und Stielen
…
spinach_emm_tbl <- spinach_model_tbl %>%  
  mutate(emm = map(model, emmeans, ~trt)) %>% 
  mutate(contrast = map(emm, contrast, method = "pairwise", 
                        adjust = "none")) %>% 
  mutate(cld = map(emm, cld, Letters = letters, adjust = "none"))

Jetzt lassen wir uns die Spalte contrast wiedergeben. Wir müssen aber vorher die Spalte noch in ein Tibble umwandeln. Dann wollen wir noch die p-Werte schöner haben. Wichtig ist auch immer, dass wir über die Funktion select() die für uns wichtigen Spalten auswählen.

spinach_emm_tbl %>% 
  mutate(contrast = map(contrast, as_tibble)) %>% 
  unnest(contrast) %>% 
  select(sample, outcome, contrast, p.value) %>% 
  mutate(p.value = pvalue(p.value))

# A tibble: 126 x 4
# Groups:   sample, outcome [6]
   sample outcome contrast    p.value
   <fct>  <fct>   <chr>       <chr>  
 1 leaf   fe      trt1 - trt2 0.002  
 2 leaf   fe      trt1 - trt3 <0.001 
 3 leaf   fe      trt1 - trt4 <0.001 
 4 leaf   fe      trt1 - trt5 <0.001 
 5 leaf   fe      trt1 - trt6 <0.001 
 6 leaf   fe      trt1 - trt7 <0.001 
 7 leaf   fe      trt2 - trt3 0.056  
 8 leaf   fe      trt2 - trt4 <0.001 
 9 leaf   fe      trt2 - trt5 0.127  
10 leaf   fe      trt2 - trt6 <0.001 
# i 116 more rows

Nachdem wir uns die Kontraste für die paarweisen Vergleiche wiedergeben haben lassen, wollen wir jetzt noch die ganzen Compact letter displays haben. Auch hier nutzen wir dann die Funktion unnest() und wolle dann nicht alle Spalten haben.

spinach_emm_tbl %>% 
  mutate(cld = map(cld, arrange, trt)) %>% 
  unnest(cld) %>% 
  select(sample, outcome, trt, .group) %>% 
  print(n = 15)

# A tibble: 42 x 4
# Groups:   sample, outcome [6]
   sample outcome trt   .group
   <fct>  <fct>   <fct> <chr> 
 1 leaf   fe      1     " a  "
 2 leaf   fe      2     "  b "
 3 leaf   fe      3     "  b "
 4 leaf   fe      4     "   c"
 5 leaf   fe      5     "  b "
 6 leaf   fe      6     "   c"
 7 leaf   fe      7     "   c"
 8 leaf   cd      1     " a  "
 9 leaf   cd      2     "  bc"
10 leaf   cd      3     "  bc"
11 leaf   cd      4     " ab "
12 leaf   cd      5     "   c"
13 leaf   cd      6     " abc"
14 leaf   cd      7     "  bc"
15 leaf   zn      1     " a"  
# i 27 more rows
…
