Beispielhafte Auswertungen - 11 Daten eines automatischen Loggers
…
pacman::p_load(tidyverse, magrittr, readxl,
               lubridate)

Die Daten des Loggers liegen in einer Exceldatei ab. Wir haben jede Minute die Konzentration von CO\(_2\), die Temperatur und die relative Feuchte messen lassen. Da wir das Datum in einem ungünstigen Format vorliegen haben, müssen wir der Funktion as_date() die Tage, Monate und das Jahr als Format mitgeben. Wir schreiben '%d.%m.%Y' und meinen damit, dass erst der Tag, dann der Monat und dann das Jahr angeben ist. Getrennt sind die Tage, Monate und Jahre durch einen Punkt. Dann verbinden wir noch die Spalte des Datums mit der Spalte des Uhrzeit und bauen uns daraus eine date_time Spalte. Die date_time Spalte brauchen wir um später für jeden Zeitpunkt die gemessenen Werte darstellen zu können.

log_tbl <- read_excel("data/log_data.xlsx") %>% 
  mutate(date = as_date(date, format = '%d.%m.%Y'),
         date_time = as_datetime(str_c(date, " ", time))) %>% 
  select(date_time, everything())

Insgesamt hat unsere Datei \(n = 35761\) Beobachtungen für die Zeit vom 21. November 2022 bis zum 16. Dezember 2022. Dank unserem Tibble wird nicht die ganze Datei wiedergegeben sondern nur die ersten zehn Zeilen.

log_tbl

# A tibble: 35,761 × 6
   date_time           date       time       co2  temp  relh
   <dttm>              <date>     <chr>    <dbl> <dbl> <dbl>
 1 2022-11-21 12:30:00 2022-11-21 12:30:00   896  18.2  61.7
 2 2022-11-21 12:31:00 2022-11-21 12:31:00   893  18.2  66.3
 3 2022-11-21 12:32:00 2022-11-21 12:32:00   893  18.4  67.8
 4 2022-11-21 12:33:00 2022-11-21 12:33:00   939  18.6  70  
 5 2022-11-21 12:34:00 2022-11-21 12:34:00   939  18.8  70.6
 6 2022-11-21 12:35:00 2022-11-21 12:35:00   975  19    70.3
 7 2022-11-21 12:36:00 2022-11-21 12:36:00   980  19.2  71.6
 8 2022-11-21 12:37:00 2022-11-21 12:37:00   986  19.4  71.8
 9 2022-11-21 12:38:00 2022-11-21 12:38:00   994  19.5  71.9
10 2022-11-21 12:39:00 2022-11-21 12:39:00   986  19.7  72.2
# ℹ 35,751 more rows
…
